#START MOH 730BA
#DATA SET: 
    "id": "Qcq4sySEbMY",
    "displayName": "MOH 730Ba F-CDRR for ARVs and OIs - Satellites- Revision 2016"

#DATA ELEMENTS
    ##METADATA
        {
            "id": "NQzz85r5JPD",
            "displayName": "MOH 730BA Abacavir (ABC) 300mg Tablets"
        },
        {
            "id": "ID6Aso4IXcZ",
            "displayName": "MOH 730BA Abacavir/Lamivudine (ABC/3TC) 120mg/60mg FDC Tablets"
        },
        {
            "id": "pZctFqRLi8W",
            "displayName": "MOH 730BA Abacavir/Lamivudine (ABC/3TC) 600mg/300mg FDC Tablets"
        },
        {
            "id": "F1W9V1jfIwf",
            "displayName": "MOH 730BA Abacavir/Lamivudine (ABC/3TC) 60mg/30mg FDC Tablets"
        },
        {
            "id": "q8sjZIlFs4J",
            "displayName": "MOH 730BA Acyclovir 400mg Tablets"
        },
        {
            "id": "RFWuUKeuciq",
            "displayName": "MOH 730BA Amphotericin B 50mg IV Injection"
        },
        {
            "id": "MNVBv62ijRX",
            "displayName": "MOH 730BA Atazanavir (ATV) 100mg Caps"
        },
        {
            "id": "MZgAjnphgsg",
            "displayName": "MOH 730BA Atazanavir/Ritonavir (ATV/r) 300/100mg Tablets"
        },
        {
            "id": "TW2swzvuk6K",
            "displayName": "MOH 730BA Cotrimoxazole 960mg Tablets"
        },
        {
            "id": "gFNHAyxeLks",
            "displayName": "MOH 730BA Cotrimoxazole suspension 240mg/5ml"
        },
        {
            "id": "owvoPNua6Q1",
            "displayName": "MOH 730BA Dapsone 100mg Tablets"
        },
        {
            "id": "jV9MuYZNb6l",
            "displayName": "MOH 730BA Darunavir (DRV) 150mg Tablets"
        },
        {
            "id": "vLBcMXH3ITC",
            "displayName": "MOH 730BA Darunavir (DRV) 600mg Tablets"
        },
        {
            "id": "VGti1UehUwX",
            "displayName": "MOH 730BA Darunavir (DRV) 75mg Tablets"
        },
        {
            "id": "wAkXhyTK5ug",
            "displayName": "MOH 730BA Darunavir (DRV) susp 100mg/ml \n(200ml Bottles)"
        },
        {
            "id": "EX8fzwmyfI7",
            "displayName": "MOH 730BA Dolutegravir(DTG) 50mg tabs"
        },
        {
            "id": "I6KeyHpHPaI",
            "displayName": "MOH 730BA Efavirenz (EFV) 200mg Tablets"
        },
        {
            "id": "Ao4QopHHGEk",
            "displayName": "MOH 730BA Efavirenz (EFV) 400mg Tablets"
        },
        {
            "id": "LVNETa4jV2u",
            "displayName": "MOH 730BA Efavirenz (EFV) 600mg Tablets"
        },
        {
            "id": "R3cZo5wqEJO",
            "displayName": "MOH 730BA Ethambutol 400mg Tab (for Pack of 28 tabs)"
        },
        {
            "id": "ARFq4oY3heY",
            "displayName": "MOH 730BA Etravirine (ETV) 100mg Tablets"
        },
        {
            "id": "PHm90uko7eq",
            "displayName": "MOH 730BA Etravirine (ETV) 200mg Tablets"
        },
        {
            "id": "CIl81MC1CxL",
            "displayName": "MOH 730BA Etravirine (ETV) 25mg Tablets"
        },
        {
            "id": "VgX1W96jMow",
            "displayName": "MOH 730BA Fluconazole 200mg Tablets"
        },
        {
            "id": "xOuDDwYj1Yw",
            "displayName": "MOH 730BA Fluconazole 50mg Tablets"
        },
        {
            "id": "jclt56IrD0J",
            "displayName": "MOH 730BA Isoniazid (H) 100mg Tablets"
        },
        {
            "id": "LbpQwKhUFgf",
            "displayName": "MOH 730BA Isoniazid (H) 300mg Tabs (for Pack of 100 tabs)"
        },
        {
            "id": "KUVy8JTJHma",
            "displayName": "MOH 730BA Isoniazid (H) 300mg Tabs (for Pack of 672 tabs)"
        },
        {
            "id": "Iif81jdgAwp",
            "displayName": "MOH 730BA Lamivudine (3TC) 150mg Tablets"
        },
        {
            "id": "bfehwWGgiWJ",
            "displayName": "MOH 730BA Lamivudine (3TC) liquid 10mg/ml \n(240ml Bottles)"
        },
        {
            "id": "lduCnun9ZJP",
            "displayName": "MOH 730BA Lopinavir/ritonavir (LPV/r) 200/50mg Tablets"
        },
        {
            "id": "DLtximMysSs",
            "displayName": "MOH 730BA Lopinavir/ritonavir (LPV/r) 40/10mg Caps"
        },
        {
            "id": "MD5fubfNOMI",
            "displayName": "MOH 730BA Lopinavir/ritonavir (LPV/r) liquid 80/20mg/ml (60ml Bottles)"
        },
        {
            "id": "PQBxN4inyLo",
            "displayName": "MOH 730BA Nevirapine (NVP) 200mg Tablets"
        },
        {
            "id": "aSaopRmPuaz",
            "displayName": "MOH 730BA Nevirapine (NVP) Susp 10mg/ml \n(100 ml Bottles)"
        },
        {
            "id": "AZZqUosplNX",
            "displayName": "MOH 730BA Pyrazinamide 500mg Tab (for Pack of 28 tabs)"
        },
        {
            "id": "EBquyc7eibs",
            "displayName": "MOH 730BA Pyridoxine 25mg Tabs"
        },
        {
            "id": "QjNUILIPIGL",
            "displayName": "MOH 730BA Pyridoxine 50mg Tablets"
        },
        {
            "id": "uM70qGs87WM",
            "displayName": "MOH 730BA Raltegravir (RAL) 100mg Tablets"
        },
        {
            "id": "AYlM9Gs9D6i",
            "displayName": "MOH 730BA Raltegravir (RAL) 25mg Tablets"
        },
        {
            "id": "iObZlGvkJDy",
            "displayName": "MOH 730BA Raltegravir (RAL) 400mg Tablets"
        },
        {
            "id": "AwEvXiS8TXC",
            "displayName": "MOH 730BA Rifabutin 150mg Tab"
        },
        {
            "id": "nQlkXyft9pb",
            "displayName": "MOH 730BA Ritonavir liquid 80mg/ml\n(90ml Bottles)"
        },
        {
            "id": "K4wC1yrizQD",
            "displayName": "MOH 730BA Ritonavir (RTV) 100mg Tablets"
        },
        {
            "id": "cHlP8txIIr4",
            "displayName": "MOH 730BA Tenofovir/Emtricitabine (TDF/FTC) FDC (300/200mg) Tablets"
        },
        {
            "id": "cv9SwH7B09P",
            "displayName": "MOH 730 BA Tenofovir/Lamivudine/Efavirenz (TDF/3TC/EFV) FDC (300/300/400mg) FDC Tablets"
        },
        {
            "id": "CM4fRYs6wGn",
            "displayName": "MOH 730BA Tenofovir/Lamivudine/Efavirenz (TDF/3TC/EFV) FDC (300/300/600mg) FDC Tablets"
        },
        {
            "id": "PWd1NaYM55x",
            "displayName": "MOH 730BA Tenofovir/Lamivudine (TDF/3TC) FDC (300/300mg) Tablets"
        },
        {
            "id": "yYUBDfyp10Y",
            "displayName": "MOH 730BA Tenofovir (TDF) 300mg Tablets"
        },
        {
            "id": "CQY0y7k4IQy",
            "displayName": "MOH 730BA Zidovudine (AZT) liquid 10mg/ml \n(240ml Bottles)"
        },
        {
            "id": "IEURUdOXwmV",
            "displayName": "MOH 730BA Zidovudine/Lamivudine (AZT/3TC) FDC (300/150mg) Tablets"
        },
        {
            "id": "wYblxwrkbww",
            "displayName": "MOH 730BA Zidovudine/Lamivudine (AZT/3TC) FDC (60/30mg) Tablets"
        },
        {
            "id": "Tn9w6C5ilIr",
            "displayName": "MOH 730BA Zidovudine/Lamivudine/Nevirapine (AZT/3TC/NVP) FDC (300/150/200mg) Tablets"
        }
    ##DX
        NQzz85r5JPD;ID6Aso4IXcZ;pZctFqRLi8W;F1W9V1jfIwf;q8sjZIlFs4J;RFWuUKeuciq;MNVBv62ijRX;MZgAjnphgsg;TW2swzvuk6K;gFNHAyxeLks;owvoPNua6Q1;jV9MuYZNb6l;vLBcMXH3ITC;VGti1UehUwX;wAkXhyTK5ug;EX8fzwmyfI7;I6KeyHpHPaI;Ao4QopHHGEk;LVNETa4jV2u;R3cZo5wqEJO;ARFq4oY3heY;PHm90uko7eq;CIl81MC1CxL;VgX1W96jMow;xOuDDwYj1Yw;jclt56IrD0J;LbpQwKhUFgf;KUVy8JTJHma;Iif81jdgAwp;bfehwWGgiWJ;lduCnun9ZJP;DLtximMysSs;MD5fubfNOMI;PQBxN4inyLo;aSaopRmPuaz;AZZqUosplNX;EBquyc7eibs;QjNUILIPIGL;uM70qGs87WM;AYlM9Gs9D6i;iObZlGvkJDy;AwEvXiS8TXC;nQlkXyft9pb;K4wC1yrizQD;cHlP8txIIr4;cv9SwH7B09P;CM4fRYs6wGn;PWd1NaYM55x;yYUBDfyp10Y;CQY0y7k4IQy;IEURUdOXwmV;wYblxwrkbww;Tn9w6C5ilIr;

#CATEGORY OPTIONS
    ##METADATA
        "efzGRLKe3nk": {
            "name": "Beginning Balance"
        },
        "CkQipmILsjN": {
            "name": "Days out of stock this Month"
        },
        "AeoqJgAPkCJ": {
            "name": "Total Quantity Received this month"
        },
        "XCVq6ebb2vV": {
            "name": "Commodities expiring in less than 6 months: Quantity"
        },
        "I7lrRhQUS9L": {
            "name": "Quantity Requested for Re-supply"
        },
        "d35XXJY6tC7": {
            "name": "Commodities expiring in less than 6 months: Earliest Expiry date"
        },
        "mSqguIpueMp": {
            "name": "End of Month Physical Stock Count"
        },
        "P4CduckLeJq": {
            "name": "Losses and Wastage"
        },
        "uAB0YkTsscj": {
            "name": "Positive Adjustments"
        },
        "Vj6Cd9zuhti": {
            "name": "Negative Adjustments."
        },
        "tKqMQQC3FSf": {
            "name": "Total Quantity dispensed."
        }
    ##CO
        uAB0YkTsscj;Vj6Cd9zuhti;d35XXJY6tC7;efzGRLKe3nk;CkQipmILsjN;AeoqJgAPkCJ;tKqMQQC3FSf;XCVq6ebb2vV;P4CduckLeJq;mSqguIpueMp;I7lrRhQUS9L;

#URL
##DHIS LAST_12_MONTHS
    https://hiskenya.org/api/analytics?dimension=dx:NQzz85r5JPD;ID6Aso4IXcZ;pZctFqRLi8W;F1W9V1jfIwf;q8sjZIlFs4J;RFWuUKeuciq;MNVBv62ijRX;MZgAjnphgsg;TW2swzvuk6K;gFNHAyxeLks;owvoPNua6Q1;jV9MuYZNb6l;vLBcMXH3ITC;VGti1UehUwX;wAkXhyTK5ug;EX8fzwmyfI7;I6KeyHpHPaI;Ao4QopHHGEk;LVNETa4jV2u;R3cZo5wqEJO;ARFq4oY3heY;PHm90uko7eq;CIl81MC1CxL;VgX1W96jMow;xOuDDwYj1Yw;jclt56IrD0J;LbpQwKhUFgf;KUVy8JTJHma;Iif81jdgAwp;bfehwWGgiWJ;lduCnun9ZJP;DLtximMysSs;MD5fubfNOMI;PQBxN4inyLo;aSaopRmPuaz;AZZqUosplNX;EBquyc7eibs;QjNUILIPIGL;uM70qGs87WM;AYlM9Gs9D6i;iObZlGvkJDy;AwEvXiS8TXC;nQlkXyft9pb;K4wC1yrizQD;cHlP8txIIr4;cv9SwH7B09P;CM4fRYs6wGn;PWd1NaYM55x;yYUBDfyp10Y;CQY0y7k4IQy;IEURUdOXwmV;wYblxwrkbww;Tn9w6C5ilIr;&dimension=pe:LAST_12_MONTHS;&dimension=co:uAB0YkTsscj;Vj6Cd9zuhti;d35XXJY6tC7;efzGRLKe3nk;CkQipmILsjN;AeoqJgAPkCJ;tKqMQQC3FSf;XCVq6ebb2vV;P4CduckLeJq;mSqguIpueMp;I7lrRhQUS9L;&dimension=ou:IG1Gyy3YH3q;OnDEhHt2DlT;VoW67kdzIju;GTBJgWnu1OT;GuFAWSVAJtr;SP1Xq12kl7B;jMASvYveXkK;A9FAQoB1Siq;NbF8FMrzjto;TJ7kmj9PYLF;w4zbe1VwNQD;M3YycknfNBU;Na35MAIiedG;uECirbmK3vj;ke9S2Mz3VEm;LkV5kJMdakx;JnIq6KZ1Itj;R6tG0IzAhpv;ASQn9MEddSK;hLgnGJh9fti;fcY1fkS6bL1;PnwtJbax3ac;FsamkWbjXfz;qfmsA8bsghX;tJVeZDtaAeT;PP253B8hwav;mWWHYZ1tDWQ;bSJkg11sPh7;zjvUyYZscbf;ngqqwzhuvjL;sm3tsYY05ZR;wdClQzCFIJ4;UpSJbkTCmSw;iV6KcqpZpNP;TjbSrT7E52j;KMa5n1FkqQa;o4pSK5PF97Y;OjwX5IrpWkM;VJaFTjbLNoF;BY5hzogAARK;Fme5HfYi8Yz;Tns72Eh3EfT;beSdaPe8i3e;lbpglStu7o6;Ao5e4mVaq7w;wm5jiU5wkdW;hmLJq0fpP3B;geSMiYmY8Go;K6JHRvs7bAu;TV3caTTBc8U;aOVjR4sxcFF;ozud4J6eShX;kHS8L1DtPun;ElWbzzfBiku;oLOy2vk98aO;oQyshRFoeqU;YPtA3hSg5pg;ENlNLYthtQS;bPQKfBFpNfA;rHeKd2QIbD1;bs491lneOuc;hac6Lg2Bqf5;m7VVNB6yflG;XhrPpF0LTsQ;ZxmTHyJ43ap;O1VQBaVQvat;vzRh9ON9ZsM;G8avY4Gzra8;NBZfDf5Rag9;R5ojZThWuJk;M9RAPkG5Qsn;eSc3m5tl4kf;qIuHbZDmYPX;ak0wzh9CthB;LRl9e3LWbrt;Ys64m0FQOFC;jneHRlhDshV;EYS2C6J7ram;wUH8NEbTU1W;Psa3nl6S4SK;upkXXpAU2Ua;sjhSrlzV4w6;l1OmcL5lUDk;Hye6HfITIcg;Ri3LdmazeTy;SKnHLYLo6lK;IUIajcIDxbh;uiQo8k8dlO4;ZyVu64QtPyq;AadLaV4ti7l;Eu4DUBxnPbV;BDWdywDLeVS;t5ezj03HWYj;nrl4EXu8KV0;UqRSRuTq2mg;QaCEAVVfwZE;aTrw18DrKW1;KRC06WZHgOL;aEdFARk1Zsm;VEde2ZaEcYZ;
    
##RTK URL
    http://rtk.nascop.org/api/get_adt_dhis_data

#END MOH 730BA

#START MOH 729B
#DATA SET: 
    "id": "mgaZyW3Xzyf",
    "displayName": "MoH 729B Facility - F'MAPS Revision 2017"

#DATA ELEMENTS
    ##METADATA
        {
            "id": "zZoGFqWJKX1",
            "displayName": "MOH 729A AF1A AZT + 3TC + NVP"
        },
        {
            "id": "pmQaI5XHaR1",
            "displayName": "MOH 729A AF1B AZT + 3TC + EFV"
        },
        {
            "id": "QUe9abfcsO6",
            "displayName": "MOH 729A AF2A TDF + 3TC + NVP"
        },
        {
            "id": "u9RGkTy2LGZ",
            "displayName": "MOH 729A AF2B TDF + 3TC + EFV"
        },
        {
            "id": "JA32K5kcNxc",
            "displayName": "MOH 729A AF4A ABC + 3TC + NVP"
        },
        {
            "id": "UVvyKh1wO6B",
            "displayName": "MOH 729A AF4B ABC + 3TC + EFV"
        },
        {
            "id": "Hq3Ey5uNnQa",
            "displayName": "MOH 729A AF5X All other 1st line Adult regimens"
        },
        {
            "id": "qDNKhfY9r3p",
            "displayName": "MOH 729A AS1A AZT + 3TC + LPV/r"
        },
        {
            "id": "wiAHW2RSwvz",
            "displayName": "MOH 729A AS1B AZT + 3TC + ATV/r"
        },
        {
            "id": "siYUdWqoOSz",
            "displayName": "MOH 729A AS2A TDF + 3TC + LPV/r"
        },
        {
            "id": "okWOjNCFcBp",
            "displayName": "MOH 729A AS2C TDF + 3TC + ATV/r"
        },
        {
            "id": "zm4b6DobTHC",
            "displayName": "MOH 729A AS5A ABC + 3TC + LPV/r"
        },
        {
            "id": "edrt3kqGVNX",
            "displayName": "MOH 729A AS5B ABC + 3TC + ATV/r"
        },
        {
            "id": "MNbcsFsKoZl",
            "displayName": "MOH 729A AS6X All other 2nd line Adult regimens"
        },
        {
            "id": "IWiiHbLvKhw",
            "displayName": "MOH 729A AT1D RAL + DRV/r + ETV + other ARVs"
        },
        {
            "id": "rdM3Vonqv92",
            "displayName": "MOH 729A AT1E RAL + ETV + other ARVs"
        },
        {
            "id": "GRusISf6dLd",
            "displayName": "MOH 729A AT1F RAL + DRV/r + other ARVs"
        },
        {
            "id": "i2kXwS6YYPq",
            "displayName": "MOH 729A AT1G RAL + other ARVs"
        },
        {
            "id": "Acz2wUJyOmh",
            "displayName": "MOH 729A AT2B ETV + other ARVs"
        },
        {
            "id": "jhoLsTaNxpq",
            "displayName": "MOH 729A AT2C ETV + DRV/r + other ARVs"
        },
        {
            "id": "XhEBGfAaUXi",
            "displayName": "MOH 729A AT2X All other 3rd line Adult regimens"
        },
        {
            "id": "vmgzLtUUiGT",
            "displayName": "MOH 729A AT3A DRV/r + other ARVs"
        },
        {
            "id": "eptxqdOvnnQ",
            "displayName": "MOH 729A CF1A AZT + 3TC + NVP"
        },
        {
            "id": "QqQe9J3ODKX",
            "displayName": "MOH 729A CF1B AZT + 3TC + EFV"
        },
        {
            "id": "TfE1ozws02b",
            "displayName": "MOH 729A CF1C AZT + 3TC + LPV/r"
        },
        {
            "id": "FTXA724XQ0e",
            "displayName": "MOH 729A CF1D AZT + 3TC + ATV/r"
        },
        {
            "id": "leDj3YTnki1",
            "displayName": "MOH 729A CF2A ABC + 3TC + NVP"
        },
        {
            "id": "KkOxZ8Iwya1",
            "displayName": "MOH 729A CF2B ABC + 3TC + EFV"
        },
        {
            "id": "sKwI6orHt8z",
            "displayName": "MOH 729A CF2D ABC + 3TC + LPV/r"
        },
        {
            "id": "wQZeYtMp2Yf",
            "displayName": "MOH 729A CF2E ABC + 3TC + ATV/r"
        },
        {
            "id": "HlagQbpwEjO",
            "displayName": "MOH 729A CF4A TDF + 3TC + NVP"
        },
        {
            "id": "vmhGH80GzaQ",
            "displayName": "MOH 729A CF4B TDF + 3TC + EFV"
        },
        {
            "id": "XfAb7tXikdl",
            "displayName": "MOH 729A CF4C TDF + 3TC + LPV/r"
        },
        {
            "id": "YQ2MtbVC3Ad",
            "displayName": "MOH 729A CF4D TDF + 3TC + ATV/r"
        },
        {
            "id": "MtVWovagPAf",
            "displayName": "MOH 729A CF5X All other 1st line Paediatric regimens"
        },
        {
            "id": "TzsIlIHJHoo",
            "displayName": "MOH 729A CS1A AZT + 3TC + LPV/r"
        },
        {
            "id": "LeeX53YNTm5",
            "displayName": "MOH 729A CS1B AZT + 3TC + ATV/r"
        },
        {
            "id": "ho0qZKttUa5",
            "displayName": "MOH 729A CS2A ABC + 3TC + LPV/r"
        },
        {
            "id": "cKCmBFV6F6D",
            "displayName": "MOH 729A CS2C ABC + 3TC + ATV/r"
        },
        {
            "id": "NM89vHVlKi6",
            "displayName": "MOH 729A CS4X All other 2nd line Paediatric regimens"
        },
        {
            "id": "ytgLPyyxouY",
            "displayName": "MOH 729A CT1D RAL + DRV/r + ETV + other ARVs"
        },
        {
            "id": "S5p96tLPJZy",
            "displayName": "MOH 729A CT1E RAL + ETV + other ARVs"
        },
        {
            "id": "EBcBGJCm1iO",
            "displayName": "MOH 729A CT1F RAL + DRV/r + other ARVs"
        },
        {
            "id": "VyVS2wjoL7Y",
            "displayName": "MOH 729A CT1G RAL + other ARVs"
        },
        {
            "id": "Z1JbJ0UjlE6",
            "displayName": "MOH 729A CT2B ETV + other ARVs"
        },
        {
            "id": "Xp8OsIiTJT1",
            "displayName": "MOH 729A CT2C ETV + DRV/r + other ARVs"
        },
        {
            "id": "BnfttdJZykU",
            "displayName": "MOH 729A CT3A DRV/r + other ARVs"
        },
        {
            "id": "tDshot050if",
            "displayName": "MOH 729A CT3X All other 3rd line Paediatric regimens"
        },
        {
            "id": "kV5sdKyvi0w",
            "displayName": "MOH 729A OI1A Adult patients on Cotrimoxazole prophylaxis"
        },
        {
            "id": "NoTAIMDsrqp",
            "displayName": "MOH 729A OI1C Paediatric patients on Cotrimoxazole prophylaxis"
        },
        {
            "id": "o1gAmwzSLb5",
            "displayName": "MOH 729A OI2A Adult patients on Dapsone prophylaxis"
        },
        {
            "id": "hFeiEESVlLo",
            "displayName": "MOH 729A OI2C Paediatric patients on Dapsone prophylaxis"
        },
        {
            "id": "QQTVyh5nFJN",
            "displayName": "MOH 729A OI4AN Adult patients (=>15 Yrs) started on IPT in the month"
        },
        {
            "id": "ZovopN2RanT",
            "displayName": "MOH 729A OI4CN Paed patients (<15 Yrs) started on IPT in the month"
        },
        {
            "id": "IFATwROxesK",
            "displayName": "MOH 729A PA1B AZT + 3TC + LPV/r (Adult PEP)"
        },
        {
            "id": "E0t04LV6mA9",
            "displayName": "MOH 729A PA1C AZT + 3TC + ATV/r (Adult PEP)"
        },
        {
            "id": "KCZQ9rKRPqi",
            "displayName": "MOH 729A PA3B TDF + 3TC + LPV/r (Adult PEP)"
        },
        {
            "id": "tRhA553HSc5",
            "displayName": "MOH 729A PA3C TDF + 3TC + ATV/r (Adult PEP)"
        },
        {
            "id": "CxKwKz7zisq",
            "displayName": "MOH 729A PA4X All other PEP regimens for Adults"
        },
        {
            "id": "Y1rsd50rCs2",
            "displayName": "MOH 729A PC1A AZT + 3TC + LPV/r (Paed PEP)"
        },
        {
            "id": "SAfks92dL6A",
            "displayName": "MOH 729A PC1X All other PMTCT regimens for Infants"
        },
        {
            "id": "o73uIErvHH7",
            "displayName": "MOH 729A PC2 NVP OD for Breastfeeding Infants until 1 week after complete cessation of Breastfeeding"
        },
        {
            "id": "qxpjScSUJCn",
            "displayName": "MOH 729A PC3A ABC + 3TC + LPV/r (Paed PEP)"
        },
        {
            "id": "mWvWxOis2i4",
            "displayName": "MOH 729A PC4X All other PEP regimens for Children"
        },
        {
            "id": "Adwh5Fb7mLf",
            "displayName": "MOH 729A PC5 3TC Liquid BD for 12 weeks"
        },
        {
            "id": "ByfcDo1wMNB",
            "displayName": "MOH 729A PC6 NVP Liquid OD for 12 weeks"
        },
        {
            "id": "QtV3KWhpB3T",
            "displayName": "MOH 729A PM10 PMTCT HAART: AZT + 3TC + ATV/r"
        },
        {
            "id": "zpjJV1jfFqf",
            "displayName": "MOH 729A PM11 PMTCT HAART: TDF + 3TC + ATV/r"
        },
        {
            "id": "neNIHx4FGaK",
            "displayName": "MOH 729A PM1X All other PMTCT regimens for Women"
        },
        {
            "id": "jTbpmqupPPp",
            "displayName": "MOH 729A PM3 PMTCT HAART: AZT + 3TC + NVP"
        },
        {
            "id": "tOWwTKhNgou",
            "displayName": "MOH 729A PM4 PMTCT HAART: AZT + 3TC + EFV"
        },
        {
            "id": "RRxgqTcMJHz",
            "displayName": "MOH 729A PM5 PMTCT HAART: AZT + 3TC + LPV/r"
        },
        {
            "id": "cB86QSQNo8D",
            "displayName": "MOH 729A PM6 PMTCT HAART:  TDF + 3TC + NVP"
        },
        {
            "id": "fpZhZpYBlNC",
            "displayName": "MOH 729A PM7 PMTCT HAART:  TDF + 3TC + LPV/r"
        },
        {
            "id": "QQXuKKczqqa",
            "displayName": "MOH 729A PM9 PMTCT HAART: TDF + 3TC + EFV"
        }

    ##DX
    zZoGFqWJKX1;pmQaI5XHaR1;QUe9abfcsO6;u9RGkTy2LGZ;JA32K5kcNxc;UVvyKh1wO6B;Hq3Ey5uNnQa;qDNKhfY9r3p;wiAHW2RSwvz;siYUdWqoOSz;okWOjNCFcBp;zm4b6DobTHC;edrt3kqGVNX;MNbcsFsKoZl;IWiiHbLvKhw;rdM3Vonqv92;GRusISf6dLd;i2kXwS6YYPq;Acz2wUJyOmh;jhoLsTaNxpq;XhEBGfAaUXi;vmgzLtUUiGT;eptxqdOvnnQ;QqQe9J3ODKX;TfE1ozws02b;FTXA724XQ0e;leDj3YTnki1;KkOxZ8Iwya1;sKwI6orHt8z;wQZeYtMp2Yf;HlagQbpwEjO;vmhGH80GzaQ;XfAb7tXikdl;YQ2MtbVC3Ad;MtVWovagPAf;TzsIlIHJHoo;LeeX53YNTm5;ho0qZKttUa5;cKCmBFV6F6D;NM89vHVlKi6;ytgLPyyxouY;S5p96tLPJZy;EBcBGJCm1iO;VyVS2wjoL7Y;Z1JbJ0UjlE6;Xp8OsIiTJT1;BnfttdJZykU;tDshot050if;kV5sdKyvi0w;NoTAIMDsrqp;o1gAmwzSLb5;hFeiEESVlLo;QQTVyh5nFJN;ZovopN2RanT;IFATwROxesK;E0t04LV6mA9;KCZQ9rKRPqi;tRhA553HSc5;CxKwKz7zisq;Y1rsd50rCs2;SAfks92dL6A;o73uIErvHH7;qxpjScSUJCn;mWvWxOis2i4;Adwh5Fb7mLf;ByfcDo1wMNB;QtV3KWhpB3T;zpjJV1jfFqf;neNIHx4FGaK;jTbpmqupPPp;tOWwTKhNgou;RRxgqTcMJHz;cB86QSQNo8D;fpZhZpYBlNC;QQXuKKczqqa;

#START MOH 730A
#DATA SET:
    "id": "rk2yudsNrm5",
    "displayName": "MOH 730A Central Site/Sub county Store (CDRR)- Rev 2017"

#DATA ELEMENTS
    ##METADATA
        {
            "id": "T8vIpv842eX",
            "displayName": "MOH 730A Abacavir (ABC) 300mg Tabs"
        },
        {
            "id": "MMjtUfWaIlo",
            "displayName": "MOH 730A Abacavir (ABC) 300mg Tabs Date"
        },
        {
            "id": "v70T2bzhYBH",
            "displayName": "MOH 730A Abacavir/Lamivudine (ABC/3TC) 60mg/30mg FDC Tabs"
        },
        {
            "id": "fqpnX9RTSf0",
            "displayName": "MOH 730A Abacavir/Lamivudine (ABC/3TC) 60mg/30mg FDC Tabs Date"
        },
        {
            "id": "kMTppRz9Dy6",
            "displayName": "MOH 730A Acyclovir 400mg Tabs"
        },
        {
            "id": "Bc3EleUlv1w",
            "displayName": "MOH 730A Acyclovir 400mg Tabs Date"
        },
        {
            "id": "OzHa7Wm9wWb",
            "displayName": "MOH 730A Amphotericin B 50mg IV Injection"
        },
        {
            "id": "ooDvfpdFy8I",
            "displayName": "MOH 730A Amphotericin B 50mg IV Injection  Date"
        },
        {
            "id": "HKNzvgOEXdV",
            "displayName": "MOH 730A Atazanavir/Ritonavir (ATV/r) 300/100mg tabs"
        },
        {
            "id": "Vj8alOcx8dB",
            "displayName": "MOH 730A Atazanavir/Ritonavir (ATV/r) 300/100mg tabs Date"
        },
        {
            "id": "zX3RWIpPsU5",
            "displayName": "MOH 730A Cotrimoxazole 960mg Tabs (for Pack of 100 tabs)"
        },
        {
            "id": "gtSuRhVTELS",
            "displayName": "MOH 730A Cotrimoxazole 960mg Tabs (for Pack of 100 tabs) Date"
        },
        {
            "id": "anJTqZAje6a",
            "displayName": "MOH 730A Cotrimoxazole 960mg Tabs (for Pack of 500 tabs)"
        },
        {
            "id": "mKXlITgt3we",
            "displayName": "MOH 730A Cotrimoxazole 960mg Tabs (for Pack of 500 tabs) Date"
        },
        {
            "id": "Ptvb1N5gQ54",
            "displayName": "MOH 730A Cotrimoxazole Suspension 240mg/5ml"
        },
        {
            "id": "ZrGVsyg1ItU",
            "displayName": "MOH 730A Cotrimoxazole Suspension 240mg/5ml Date"
        },
        {
            "id": "ZcZwhTRfWkK",
            "displayName": "MOH 730A Dapsone 100mg Tabs (for Pack of 1000 tabs)"
        },
        {
            "id": "tLnOgsuoWiW",
            "displayName": "MOH 730A Dapsone 100mg Tabs (for Pack of 1000 tabs) Date"
        },
        {
            "id": "g2J7NpW2ZM8",
            "displayName": "MOH 730A Dapsone 100mg Tabs (for Pack of 100 tabs)"
        },
        {
            "id": "KFUwW43skJV",
            "displayName": "MOH 730A Dapsone 100mg Tabs (for Pack of 100 tabs) Date"
        },
        {
            "id": "onTjG9ODh1k",
            "displayName": "MOH 730A Darunavir (DRV) 150mg Tabs (Pack of 240 tabs)"
        },
        {
            "id": "e8AJBrccirC",
            "displayName": "MOH 730A Darunavir (DRV) 150mg Tabs (Pack of 240 tabs) Date"
        },
        {
            "id": "BDKBvFhIQJf",
            "displayName": "MOH 730A Darunavir (DRV) 600mg tabs"
        },
        {
            "id": "g3eRQJb2DxE",
            "displayName": "MOH 730A Darunavir (DRV) 600mg tabs Date"
        },
        {
            "id": "bZplX60YbPf",
            "displayName": "MOH 730A Darunavir (DRV) 75mg Tabs (Pack of 480 tabs)"
        },
        {
            "id": "HlL5QUB4BHn",
            "displayName": "MOH 730A Darunavir (DRV) 75mg Tabs (Pack of 480 tabs) Date"
        },
        {
            "id": "wxA11VC6wRx",
            "displayName": "MOH 730A Darunavir (DRV) susp 100mg/ml"
        },
        {
            "id": "oanm5ctGRqL",
            "displayName": "MOH 730A Darunavir (DRV) susp 100mg/ml Date"
        },
        {
            "id": "U3PLl3ULQt8",
            "displayName": "MOH 730A Diflucan 200mg Tabs"
        },
        {
            "id": "C6Z4Qv4O8I9",
            "displayName": "MOH 730A Diflucan 200mg Tabs Date"
        },
        {
            "id": "piEFmBh6Uql",
            "displayName": "MOH 730A Diflucan IV Infusion 2mg/ml"
        },
        {
            "id": "hWEbEHyjlDD",
            "displayName": "MOH 730A Diflucan IV Infusion 2mg/ml Date"
        },
        {
            "id": "zbrSNo8bSST",
            "displayName": "MOH 730A Diflucan Suspension 50mg/5ml"
        },
        {
            "id": "DZrEg4E6EEM",
            "displayName": "MOH 730A Diflucan Suspension 50mg/5ml Date"
        },
        {
            "id": "UMqyIpzJRCJ",
            "displayName": "MOH 730A Efavirenz (EFV) 200mg Tabs"
        },
        {
            "id": "dFnBJbREM7V",
            "displayName": "MOH 730A Efavirenz (EFV) 200mg Tabs Date"
        },
        {
            "id": "ugsQqSyyZy2",
            "displayName": "MOH 730A Efavirenz (EFV) 600mg Tabs"
        },
        {
            "id": "tl3vK3UTOQj",
            "displayName": "MOH 730A Efavirenz (EFV) 600mg Tabs Date"
        },
        {
            "id": "wFFhejJhg1B",
            "displayName": "MOH 730A Etravirine (ETV) 100mg tabs"
        },
        {
            "id": "eCYiTK1B4DP",
            "displayName": "MOH 730A Etravirine (ETV) 100mg tabs Date"
        },
        {
            "id": "LI1E9Xrvpwr",
            "displayName": "MOH 730A Etravirine (ETV) 200mg tabs"
        },
        {
            "id": "Ftb9iad2tuF",
            "displayName": "MOH 730A Etravirine (ETV) 200mg tabs Date"
        },
        {
            "id": "fWTJUSnntn6",
            "displayName": "MOH 730A Etravirine (ETV) 25mg tabs"
        },
        {
            "id": "gxaaZQcXxyN",
            "displayName": "MOH 730A Etravirine (ETV) 25mg tabs Date"
        },
        {
            "id": "HkZ39x8BCEK",
            "displayName": "MOH 730A Fluconazole 200mg Tabs"
        },
        {
            "id": "QOqeb7sf39F",
            "displayName": "MOH 730A Fluconazole 200mg Tabs Date"
        },
        {
            "id": "siZ3FslqDHV",
            "displayName": "MOH 730A Isoniazid (H) 100mg tabs"
        },
        {
            "id": "s2TIUgmsLak",
            "displayName": "MOH 730A Isoniazid (H) 100mg tabs Date"
        },
        {
            "id": "ymWk2uW4f1s",
            "displayName": "MOH 730A Isoniazid (H) 300mg Tabs (for Pack of 100 tabs)"
        },
        {
            "id": "K9oX1OaALFB",
            "displayName": "MOH 730A Isoniazid (H) 300mg Tabs (for Pack of 100 tabs) Date"
        },
        {
            "id": "y8vOQhrlRLj",
            "displayName": "MOH 730A Isoniazid (H) 300mg Tabs (for Pack of 672 tabs)"
        },
        {
            "id": "PdpLFlfNShY",
            "displayName": "MOH 730A Isoniazid (H) 300mg Tabs (for Pack of 672 tabs) Date"
        },
        {
            "id": "iKalfg97rtZ",
            "displayName": "MOH 730A Lamivudine (3TC) 150mg Tabs"
        },
        {
            "id": "QRCbMPITvie",
            "displayName": "MOH 730A Lamivudine (3TC) 150mg Tabs Date"
        },
        {
            "id": "r9fSbflgQgC",
            "displayName": "MOH 730A Lamivudine (3TC) liquid 10mg/ml"
        },
        {
            "id": "VnDYmT9vbQr",
            "displayName": "MOH 730A Lamivudine (3TC) liquid 10mg/ml Date"
        },
        {
            "id": "VJ9VJ6dxwVD",
            "displayName": "MOH 730A Lopinavir/ritonavir (LPV/r) 200/50mg Tabs"
        },
        {
            "id": "U20nZSx3xRa",
            "displayName": "MOH 730A Lopinavir/ritonavir (LPV/r) 200/50mg Tabs Date"
        },
        {
            "id": "OnFFuii2sYi",
            "displayName": "MOH 730A Lopinavir/ritonavir (LPV/r) liquid 80/20mg/ml"
        },
        {
            "id": "i7ACaP3K3Fe",
            "displayName": "MOH 730A Lopinavir/ritonavir (LPV/r) liquid 80/20mg/ml Date"
        },
        {
            "id": "JrfpoCr2vII",
            "displayName": "MOH 730A Nevirapine (NVP) 200mg Tabs"
        },
        {
            "id": "Lf4bdoFYDBF",
            "displayName": "MOH 730A Nevirapine (NVP) 200mg Tabs Date"
        },
        {
            "id": "rNmSAnjCmWK",
            "displayName": "MOH 730A Nevirapine (NVP) Susp 10mg/ml"
        },
        {
            "id": "kdlgVPvedKG",
            "displayName": "MOH 730A Nevirapine (NVP) Susp 10mg/ml  Date"
        },
        {
            "id": "AUsGmP0j5eC",
            "displayName": "MOH 730A Pyridoxine 25mg Tabs"
        },
        {
            "id": "Cwa2SI0sBlA",
            "displayName": "MOH 730A Pyridoxine 25mg Tabs Date"
        },
        {
            "id": "wWKgpcMkHnJ",
            "displayName": "MOH 730A Pyridoxine 50mg Tabs"
        },
        {
            "id": "KVsoXNki6PM",
            "displayName": "MOH 730A Pyridoxine 50mg Tabs Date"
        },
        {
            "id": "pCPSqHPI4iN",
            "displayName": "MOH 730A Raltegravir (RAL) 100mg tabs"
        },
        {
            "id": "rLNVVzoRsZl",
            "displayName": "MOH 730A Raltegravir (RAL) 100mg tabs Date"
        },
        {
            "id": "kwhxIWspmVw",
            "displayName": "MOH 730A Raltegravir (RAL) 25mg tabs"
        },
        {
            "id": "sLAlHXBpqJr",
            "displayName": "MOH 730A Raltegravir (RAL) 25mg tabs Date"
        },
        {
            "id": "VfUQzXlpKQl",
            "displayName": "MOH 730A Raltegravir (RAL) 400mg tabs"
        },
        {
            "id": "nrWPry2ZWu9",
            "displayName": "MOH 730A Raltegravir (RAL) 400mg tabs Date"
        },
        {
            "id": "xUayEnX8Blt",
            "displayName": "MOH 730A Ritonavir (RTV) 100mg tabs"
        },
        {
            "id": "vzb0QhdEDj6",
            "displayName": "MOH 730A Ritonavir (RTV) 100mg tabs Date"
        },
        {
            "id": "NWL4ULZezMy",
            "displayName": "MOH 730A Ritonavir (RTV) liquid 80mg/ml"
        },
        {
            "id": "ZROyprWMxhZ",
            "displayName": "MOH 730A Ritonavir (RTV) liquid 80mg/ml Date"
        },
        {
            "id": "LK4JkwJDx2c",
            "displayName": "MOH 730A Tenofovir/Lamivudine/Efavirenz (TDF/3TC/EFV) FDC (300/300/600mg) Tabs"
        },
        {
            "id": "BMFoqWOjdBw",
            "displayName": "MOH 730A Tenofovir/Lamivudine/Efavirenz (TDF/3TC/EFV) FDC (300/300/600mg) Tabs Date"
        },
        {
            "id": "aYXQcIen2Wl",
            "displayName": "MOH 730A Tenofovir/Lamivudine (TDF/3TC) FDC (300/300mg) Tabs"
        },
        {
            "id": "Gj7v7FoXJdK",
            "displayName": "MOH 730A Tenofovir/Lamivudine (TDF/3TC) FDC (300/300mg) Tabs Date"
        },
        {
            "id": "u66LdVsKCvV",
            "displayName": "MOH 730A Tenofovir (TDF) 300mg Tabs"
        },
        {
            "id": "RevLEtrNG0a",
            "displayName": "MOH 730A Tenofovir (TDF) 300mg Tabs Date"
        },
        {
            "id": "ijmmJw97V6g",
            "displayName": "MOH 730A Zidovudine/Lamivudine (AZT/3TC) FDC (300/150mg) Tabs"
        },
        {
            "id": "b0Qch0D8yWT",
            "displayName": "MOH 730A Zidovudine/Lamivudine (AZT/3TC) FDC (300/150mg) Tabs Date"
        },
        {
            "id": "eb9fVoSbFIr",
            "displayName": "MOH 730A Zidovudine/Lamivudine (AZT/3TC) FDC (60/30mg) Tabs"
        },
        {
            "id": "DxAOqih74Ya",
            "displayName": "MOH 730A Zidovudine/Lamivudine (AZT/3TC) FDC (60/30mg) Tabs Date"
        },
        {
            "id": "c4V5Fav5ovZ",
            "displayName": "MOH 730A Zidovudine/Lamivudine/Nevirapine (AZT/3TC/NVP) FDC (300/150/200mg) Tabs"
        },
        {
            "id": "mVYAT9njrGu",
            "displayName": "MOH 730A Zidovudine/Lamivudine/Nevirapine (AZT/3TC/NVP) FDC (300/150/200mg) Tabs Date"
        },
        {
            "id": "in4iMk8Fjj1",
            "displayName": "MOH 730A Zidovudine/Lamivudine/Nevirapine(AZT/3TC/NVP) FDC (60/30/50mg) tabs"
        },
        {
            "id": "GxqllPmPYDG",
            "displayName": "MOH 730A Zidovudine/Lamivudine/Nevirapine (AZT/3TC/NVP) FDC (60/30/50mg) tabs Date"
        },
        {
            "id": "NQzz85r5JPD",
            "displayName": "MOH 730BA Abacavir (ABC) 300mg Tablets"
        },
        {
            "id": "ID6Aso4IXcZ",
            "displayName": "MOH 730BA Abacavir/Lamivudine (ABC/3TC) 120mg/60mg FDC Tablets"
        },
        {
            "id": "pZctFqRLi8W",
            "displayName": "MOH 730BA Abacavir/Lamivudine (ABC/3TC) 600mg/300mg FDC Tablets"
        },
        {
            "id": "F1W9V1jfIwf",
            "displayName": "MOH 730BA Abacavir/Lamivudine (ABC/3TC) 60mg/30mg FDC Tablets"
        },
        {
            "id": "q8sjZIlFs4J",
            "displayName": "MOH 730BA Acyclovir 400mg Tablets"
        },
        {
            "id": "RFWuUKeuciq",
            "displayName": "MOH 730BA Amphotericin B 50mg IV Injection"
        },
        {
            "id": "MNVBv62ijRX",
            "displayName": "MOH 730BA Atazanavir (ATV) 100mg Caps"
        },
        {
            "id": "MZgAjnphgsg",
            "displayName": "MOH 730BA Atazanavir/Ritonavir (ATV/r) 300/100mg Tablets"
        },
        {
            "id": "cWzuTozjBUb",
            "displayName": "MOH 730B Abacavir (ABC) 300mg Tabs"
        },
        {
            "id": "YAr4l09PkW3",
            "displayName": "MOH 730B Abacavir (ABC) 300mg Tabs Date"
        },
        {
            "id": "VRFyixZiNKq",
            "displayName": "MOH 730B Abacavir/Lamivudine (ABC/3TC) 60mg/30mg FDC Tabs"
        },
        {
            "id": "ICbjQb7r296",
            "displayName": "MOH 730B Abacavir/Lamivudine (ABC/3TC) 60mg/30mg FDC Tabs Date"
        },
        {
            "id": "TW2swzvuk6K",
            "displayName": "MOH 730BA Cotrimoxazole 960mg Tablets"
        },
        {
            "id": "gFNHAyxeLks",
            "displayName": "MOH 730BA Cotrimoxazole suspension 240mg/5ml"
        },
        {
            "id": "fCU7NkQ7egO",
            "displayName": "MOH 730B Acyclovir 400mg Tabs"
        },
        {
            "id": "y0bdduT1pUf",
            "displayName": "MOH 730B Acyclovir 400mg Tabs Date"
        },
        {
            "id": "owvoPNua6Q1",
            "displayName": "MOH 730BA Dapsone 100mg Tablets"
        },
        {
            "id": "jV9MuYZNb6l",
            "displayName": "MOH 730BA Darunavir (DRV) 150mg Tablets"
        },
        {
            "id": "vLBcMXH3ITC",
            "displayName": "MOH 730BA Darunavir (DRV) 600mg Tablets"
        },
        {
            "id": "VGti1UehUwX",
            "displayName": "MOH 730BA Darunavir (DRV) 75mg Tablets"
        },
        {
            "id": "wAkXhyTK5ug",
            "displayName": "MOH 730BA Darunavir (DRV) susp 100mg/ml \n(200ml Bottles)"
        },
        {
            "id": "EX8fzwmyfI7",
            "displayName": "MOH 730BA Dolutegravir(DTG) 50mg tabs"
        },
        {
            "id": "I6KeyHpHPaI",
            "displayName": "MOH 730BA Efavirenz (EFV) 200mg Tablets"
        },
        {
            "id": "Ao4QopHHGEk",
            "displayName": "MOH 730BA Efavirenz (EFV) 400mg Tablets"
        },
        {
            "id": "LVNETa4jV2u",
            "displayName": "MOH 730BA Efavirenz (EFV) 600mg Tablets"
        },
        {
            "id": "R3cZo5wqEJO",
            "displayName": "MOH 730BA Ethambutol 400mg Tab (for Pack of 28 tabs)"
        },
        {
            "id": "ARFq4oY3heY",
            "displayName": "MOH 730BA Etravirine (ETV) 100mg Tablets"
        },
        {
            "id": "PHm90uko7eq",
            "displayName": "MOH 730BA Etravirine (ETV) 200mg Tablets"
        },
        {
            "id": "CIl81MC1CxL",
            "displayName": "MOH 730BA Etravirine (ETV) 25mg Tablets"
        },
        {
            "id": "VgX1W96jMow",
            "displayName": "MOH 730BA Fluconazole 200mg Tablets"
        },
        {
            "id": "xOuDDwYj1Yw",
            "displayName": "MOH 730BA Fluconazole 50mg Tablets"
        },
        {
            "id": "jclt56IrD0J",
            "displayName": "MOH 730BA Isoniazid (H) 100mg Tablets"
        },
        {
            "id": "LbpQwKhUFgf",
            "displayName": "MOH 730BA Isoniazid (H) 300mg Tabs (for Pack of 100 tabs)"
        },
        {
            "id": "KUVy8JTJHma",
            "displayName": "MOH 730BA Isoniazid (H) 300mg Tabs (for Pack of 672 tabs)"
        },
        {
            "id": "Iif81jdgAwp",
            "displayName": "MOH 730BA Lamivudine (3TC) 150mg Tablets"
        },
        {
            "id": "bfehwWGgiWJ",
            "displayName": "MOH 730BA Lamivudine (3TC) liquid 10mg/ml \n(240ml Bottles)"
        },
        {
            "id": "lduCnun9ZJP",
            "displayName": "MOH 730BA Lopinavir/ritonavir (LPV/r) 200/50mg Tablets"
        },
        {
            "id": "DLtximMysSs",
            "displayName": "MOH 730BA Lopinavir/ritonavir (LPV/r) 40/10mg Caps"
        },
        {
            "id": "MD5fubfNOMI",
            "displayName": "MOH 730BA Lopinavir/ritonavir (LPV/r) liquid 80/20mg/ml (60ml Bottles)"
        },
        {
            "id": "nfjDbwayZ4s",
            "displayName": "MOH 730B Amphotericin B 50mg IV Injection"
        },
        {
            "id": "WAzE2A426Pa",
            "displayName": "MOH 730B Amphotericin B 50mg IV Injection  Date"
        },
        {
            "id": "PQBxN4inyLo",
            "displayName": "MOH 730BA Nevirapine (NVP) 200mg Tablets"
        },
        {
            "id": "aSaopRmPuaz",
            "displayName": "MOH 730BA Nevirapine (NVP) Susp 10mg/ml \n(100 ml Bottles)"
        },
        {
            "id": "AZZqUosplNX",
            "displayName": "MOH 730BA Pyrazinamide 500mg Tab (for Pack of 28 tabs)"
        },
        {
            "id": "EBquyc7eibs",
            "displayName": "MOH 730BA Pyridoxine 25mg Tabs"
        },
        {
            "id": "QjNUILIPIGL",
            "displayName": "MOH 730BA Pyridoxine 50mg Tablets"
        },
        {
            "id": "uM70qGs87WM",
            "displayName": "MOH 730BA Raltegravir (RAL) 100mg Tablets"
        },
        {
            "id": "AYlM9Gs9D6i",
            "displayName": "MOH 730BA Raltegravir (RAL) 25mg Tablets"
        },
        {
            "id": "iObZlGvkJDy",
            "displayName": "MOH 730BA Raltegravir (RAL) 400mg Tablets"
        },
        {
            "id": "AwEvXiS8TXC",
            "displayName": "MOH 730BA Rifabutin 150mg Tab"
        },
        {
            "id": "nQlkXyft9pb",
            "displayName": "MOH 730BA Ritonavir liquid 80mg/ml\n(90ml Bottles)"
        },
        {
            "id": "K4wC1yrizQD",
            "displayName": "MOH 730BA Ritonavir (RTV) 100mg Tablets"
        },
        {
            "id": "AqK0pDHRkop",
            "displayName": "MOH 730B Atazanavir/Ritonavir (ATV/r) 300/100mg tabs"
        },
        {
            "id": "hSNTGjzfRyM",
            "displayName": "MOH 730B Atazanavir/Ritonavir (ATV/r) 300/100mg tabs Date"
        },
        {
            "id": "cHlP8txIIr4",
            "displayName": "MOH 730BA Tenofovir/Emtricitabine (TDF/FTC) FDC (300/200mg) Tablets"
        },
        {
            "id": "cv9SwH7B09P",
            "displayName": "MOH 730 BA Tenofovir/Lamivudine/Efavirenz (TDF/3TC/EFV) FDC (300/300/400mg) FDC Tablets"
        },
        {
            "id": "CM4fRYs6wGn",
            "displayName": "MOH 730BA Tenofovir/Lamivudine/Efavirenz (TDF/3TC/EFV) FDC (300/300/600mg) FDC Tablets"
        },
        {
            "id": "PWd1NaYM55x",
            "displayName": "MOH 730BA Tenofovir/Lamivudine (TDF/3TC) FDC (300/300mg) Tablets"
        },
        {
            "id": "yYUBDfyp10Y",
            "displayName": "MOH 730BA Tenofovir (TDF) 300mg Tablets"
        },
        {
            "id": "CQY0y7k4IQy",
            "displayName": "MOH 730BA Zidovudine (AZT) liquid 10mg/ml \n(240ml Bottles)"
        },
        {
            "id": "IEURUdOXwmV",
            "displayName": "MOH 730BA Zidovudine/Lamivudine (AZT/3TC) FDC (300/150mg) Tablets"
        },
        {
            "id": "wYblxwrkbww",
            "displayName": "MOH 730BA Zidovudine/Lamivudine (AZT/3TC) FDC (60/30mg) Tablets"
        },
        {
            "id": "Tn9w6C5ilIr",
            "displayName": "MOH 730BA Zidovudine/Lamivudine/Nevirapine (AZT/3TC/NVP) FDC (300/150/200mg) Tablets"
        }

    ##DX
    rk2yudsNrm5;T8vIpv842eX;MMjtUfWaIlo;v70T2bzhYBH;fqpnX9RTSf0;kMTppRz9Dy6;Bc3EleUlv1w;OzHa7Wm9wWb;ooDvfpdFy8I;HKNzvgOEXdV;Vj8alOcx8dB;zX3RWIpPsU5;gtSuRhVTELS;anJTqZAje6a;mKXlITgt3we;Ptvb1N5gQ54;ZrGVsyg1ItU;ZcZwhTRfWkK;tLnOgsuoWiW;g2J7NpW2ZM8;KFUwW43skJV;onTjG9ODh1k;e8AJBrccirC;BDKBvFhIQJf;g3eRQJb2DxE;bZplX60YbPf;HlL5QUB4BHn;wxA11VC6wRx;oanm5ctGRqL;U3PLl3ULQt8;C6Z4Qv4O8I9;piEFmBh6Uql;hWEbEHyjlDD;zbrSNo8bSST;DZrEg4E6EEM;UMqyIpzJRCJ;dFnBJbREM7V;ugsQqSyyZy2;tl3vK3UTOQj;wFFhejJhg1B;eCYiTK1B4DP;LI1E9Xrvpwr;Ftb9iad2tuF;fWTJUSnntn6;gxaaZQcXxyN;HkZ39x8BCEK;QOqeb7sf39F;siZ3FslqDHV;s2TIUgmsLak;ymWk2uW4f1s;K9oX1OaALFB;y8vOQhrlRLj;PdpLFlfNShY;iKalfg97rtZ;QRCbMPITvie;r9fSbflgQgC;VnDYmT9vbQr;VJ9VJ6dxwVD;U20nZSx3xRa;OnFFuii2sYi;i7ACaP3K3Fe;JrfpoCr2vII;Lf4bdoFYDBF;rNmSAnjCmWK;kdlgVPvedKG;AUsGmP0j5eC;Cwa2SI0sBlA;wWKgpcMkHnJ;KVsoXNki6PM;pCPSqHPI4iN;rLNVVzoRsZl;kwhxIWspmVw;sLAlHXBpqJr;VfUQzXlpKQl;nrWPry2ZWu9;xUayEnX8Blt;vzb0QhdEDj6;NWL4ULZezMy;ZROyprWMxhZ;LK4JkwJDx2c;BMFoqWOjdBw;aYXQcIen2Wl;Gj7v7FoXJdK;u66LdVsKCvV;RevLEtrNG0a;ijmmJw97V6g;b0Qch0D8yWT;eb9fVoSbFIr;DxAOqih74Ya;c4V5Fav5ovZ;mVYAT9njrGu;in4iMk8Fjj1;GxqllPmPYDG;


    

#END MOH 730A