{
   "name" : "RTK DHIS OAuth2 Demo Client",
   "cid" : "vl_eid",
   "secret" : "c79772344-efd9-da7b-b930-b2d931e7e87",
   "grantTypes" : [
      "password",
      "refresh_token",
      "authorization_code"
   ],
   "redirectUris" : [
      "http://rtk.nascop.org/api/receive_auth_token"
   ],
   "query" : {
        "match_all" : {}
    }
}